<?xml version="1.0" encoding="utf-8"?>
<!-- Generator: Adobe Illustrator 17.0.0, SVG Export Plug-In . SVG Version: 6.00 Build 0)  -->
<!DOCTYPE svg PUBLIC "-//W3C//DTD SVG 1.1//EN" "http://www.w3.org/Graphics/SVG/1.1/DTD/svg11.dtd" [
	<!ENTITY ns_extend "http://ns.adobe.com/Extensibility/1.0/">
	<!ENTITY ns_ai "http://ns.adobe.com/AdobeIllustrator/10.0/">
	<!ENTITY ns_graphs "http://ns.adobe.com/Graphs/1.0/">
	<!ENTITY ns_vars "http://ns.adobe.com/Variables/1.0/">
	<!ENTITY ns_imrep "http://ns.adobe.com/ImageReplacement/1.0/">
	<!ENTITY ns_sfw "http://ns.adobe.com/SaveForWeb/1.0/">
	<!ENTITY ns_custom "http://ns.adobe.com/GenericCustomNamespace/1.0/">
	<!ENTITY ns_adobe_xpath "http://ns.adobe.com/XPath/1.0/">
]>
<svg version="1.1" id="Layer_1" xmlns:x="&ns_extend;" xmlns:i="&ns_ai;" xmlns:graph="&ns_graphs;"
	 xmlns="http://www.w3.org/2000/svg" xmlns:xlink="http://www.w3.org/1999/xlink" x="0px" y="0px" width="1757.48px"
	 height="4308.662px" viewBox="0 0 1757.48 4308.662" enable-background="new 0 0 1757.48 4308.662" xml:space="preserve">
<metadata>
	<sfw  xmlns="&ns_sfw;">
		<slices></slices>
		<sliceSourceBounds  width="1757.481" height="4308.662" x="-239.241" y="-1753.831" bottomLeftOrigin="true"></sliceSourceBounds>
	</sfw>
</metadata>
<g>
	
		<linearGradient id="SVGID_1_" gradientUnits="userSpaceOnUse" x1="390.7405" y1="667.6942" x2="390.7405" y2="-3640.9678" gradientTransform="matrix(1 0 0 1 488 3640.9678)">
		<stop  offset="0" style="stop-color:#E6E7E8"/>
		<stop  offset="1" style="stop-color:#FFFFFF"/>
	</linearGradient>
	<rect x="0" fill="url(#SVGID_1_)" width="1757.48" height="4308.662"/>
	<g>
		<g>
			<path fill="#3C9043" d="M1304.598,297.35v-18.242c0.377-15.098,3.619-29.17,9.765-42.262c6.13-13.103,14.12-24.516,23.971-34.274
				c9.861-9.777,21.298-17.505,34.3-23.227c13.039-5.709,26.788-8.571,41.312-8.571V143.16c-18.61,0.372-36.661,4.063-54.125,11.05
				c-17.486,6.982-32.552,16.946-45.183,29.83c-6.313,6.254-11.997,13.236-17.013,20.979c-5.017,7.762-9.302,15.949-12.83,24.606
				c-3.527,8.651-6.226,17.483-8.087,26.52c-1.855,9.011-2.791,17.574-2.791,25.679v58.539v45.308v57.444v30.395v50.817h0.017
				v174.314h30.665V518.594v-45.079v-90.581c0.377-15.065,3.619-29.148,9.765-42.217c6.13-13.1,14.12-24.497,23.971-34.252
				c9.861-9.762,21.298-17.492,34.3-23.195c13.039-5.717,26.788-8.576,41.312-8.576v-27.618c-9.307,0-18.233,0.645-26.783,1.928
				c-8.571,1.297-17.508,3.778-26.794,7.456c-17.083,7.743-32.337,17.888-45.731,30.411c-0.737,0.745-1.21,1.278-1.393,1.646
				c-0.166,0.375-0.473,0.82-0.855,1.395c-0.355,0.543-1.102,1.369-2.232,2.474C1309.061,293.481,1307.2,295.137,1304.598,297.35"/>
			<path fill="#3C9043" d="M1242.934,248.987c14.368-14.232,1.785-49.797-28.122-79.398c-29.896-29.59-80.22-27.766-80.15-27.828
				c0.005-0.008-1.807,49.771,28.095,79.388C1192.658,250.755,1228.545,263.23,1242.934,248.987"/>
			<path fill="#D95131" d="M1467.436,384.941c0,28.413-23.266,51.44-51.937,51.44c-28.692,0-51.942-23.027-51.942-51.44
				c0-28.405,23.251-51.43,51.942-51.43C1444.169,333.511,1467.436,356.536,1467.436,384.941z"/>
			<path fill="#606268" d="M390.356,493.682c-13.023-5.884-24.444-13.713-34.327-23.471c-9.84-9.769-17.54-21.184-23.127-34.271
				c-5.575-13.073-8.372-26.797-8.372-41.154c0-14.751,2.797-28.653,8.372-41.724c5.587-13.077,13.287-24.39,23.127-33.979
				c9.883-9.588,21.304-17.137,34.327-22.667c13.013-5.522,27.143-8.294,42.382-8.294c27.53,0,51.867,9.029,73.058,27.055
				l22.879-19.866l-2.785-2.772c-5.205-4.772-11.437-9.452-18.691-14.035c-7.248-4.588-15.33-8.891-24.261-12.916
				c-7.442-2.567-15.524-4.873-24.272-6.899c-8.738-2-18.121-3.03-28.154-3.03c-19.347,0-37.456,3.97-54.394,11.888
				c-16.916,7.905-31.596,18.309-44.038,31.194c-12.432,12.874-22.266,27.684-29.498,44.413
				c-7.205,16.761-10.818,33.96-10.818,51.632c0,18.402,3.796,35.875,11.378,52.441c7.598,16.554,17.798,31.081,30.617,43.594
				c12.819,12.523,27.584,22.547,44.328,30.096c16.723,7.546,34.198,11.316,52.426,11.316c8.184,0,16.723-0.996,25.654-3.03
				c8.931-2.013,17.749-4.769,26.498-8.236c8.716-3.496,16.814-7.615,24.255-12.387c7.421-4.753,13.765-10.11,18.971-15.992
				l-20.094-19.882c-8.909,8.835-19.777,16.013-32.622,21.541c-12.829,5.514-26.304,8.289-40.435,8.289
				C417.499,502.535,403.368,499.585,390.356,493.682"/>
			<path fill="#606268" d="M824.424,393.779h-1.129c0,15.076-2.871,29.143-8.646,42.214c-5.759,13.055-13.561,24.355-23.422,33.922
				c-9.861,9.559-21.401,17.113-34.585,22.616c-13.195,5.515-27.047,8.273-41.565,8.273c-15.228,0-29.364-2.758-42.381-8.273
				c-13.002-5.512-24.261-13.076-33.73-22.632c-9.48-9.572-16.932-20.9-22.32-33.96c-5.399-13.066-8.093-27.14-8.093-42.238
				c0-14.352,2.694-28.041,8.093-41.135c5.388-13.05,12.84-24.545,22.336-34.501c9.464-9.926,20.729-17.758,33.736-23.474
				c13.007-5.69,27.165-8.531,42.414-8.531c17.852,0,34.854,4.337,51.05,12.983c16.174,8.646,29.466,19.96,39.898,33.957
				l-60.814,60.778h43.005l32.934-33.143l25.648-24.883l2.232-2.753l-37.919-39.77c-13.013-12.134-27.886-21.451-44.619-27.873
				c-16.739-6.463-34.026-9.7-51.872-9.7c-29.009,0-54.475,7.562-76.424,22.656c-21.938,15.106-39.414,35.148-52.426,60.164
				c-4.097,8.842-6.786,17.688-8.098,26.512c-1.301,8.84-1.946,18.42-1.946,28.712c0,18.782,3.624,36.548,10.878,53.296
				c7.254,16.75,17.191,31.371,29.815,43.894c12.658,12.509,27.423,22.372,44.323,29.529c16.916,7.173,34.838,10.781,53.808,10.781
				c19.325,0,37.424-3.608,54.351-10.781c16.916-7.157,31.59-16.911,44.059-29.25c12.432-12.315,22.379-26.832,29.822-43.585
				c7.425-16.732,11.135-34.669,11.135-53.807h-29.548V393.779z"/>
			<path fill="#606268" d="M1125.29,278.503c-23.025-15.116-48.469-22.662-76.322-22.662c-20.422,0-39.177,3.775-56.255,11.316
				c-17.083,7.554-31.751,17.686-44.027,30.384c-12.249,12.722-21.713,27.436-28.391,44.206c-6.7,16.75-10.034,34.33-10.034,52.75
				c0,19.158,3.603,37.11,10.84,53.871c7.194,16.748,17.115,31.297,29.757,43.636c12.636,12.333,27.402,22.089,44.317,29.281
				c16.916,7.176,34.854,10.771,53.824,10.771c11.534,0,19.336-0.45,23.438-1.385c4.087-0.911,7.432-1.379,10.028-1.379
				l-5.017-29.689c-5.21,1.483-9.953,2.288-14.228,2.474c-4.264,0.192-9.006,0.28-14.222,0.28c-15.239,0-29.471-2.86-42.661-8.584
				c-13.217-5.693-24.633-13.327-34.306-22.952c-9.684-9.57-17.379-20.902-23.143-34.01c-5.753-13.071-8.646-27.175-8.646-42.313
				c0-14.751,2.882-28.659,8.646-41.759c5.742-13.082,13.459-24.6,23.121-34.564c9.663-9.95,21.099-17.867,34.316-23.799
				c13.174-5.871,27.407-8.84,42.64-8.84c15.244,0,29.552,2.969,42.946,8.84c13.362,5.908,24.992,13.822,34.859,23.767
				c9.824,9.948,17.637,21.469,23.395,34.548c5.759,13.09,8.668,26.989,8.668,41.732v137.634h29.966V454.16v-59.663
				c0-9.213-0.661-18.133-1.941-26.805c-1.323-8.635-3.995-17.574-8.092-26.789C1166.15,314.412,1148.314,293.59,1125.29,278.503"/>
		</g>
		<g>
			<path fill="#606268" d="M454.786,607.013c-0.505,8.443-3.855,16.2-13.706,16.2c-12.819,0-14.523-11.947-14.523-23.203
				c0-11.258,2.081-23.203,14.523-23.203c9.154,0,13.08,5.121,13.324,13.878h-5.807c-0.186-5.059-1.775-9.381-7.517-9.381
				c-7.7,0-8.711,8.383-8.711,18.705c0,10.318,1.011,18.697,8.711,18.697c6.757,0,7.711-6.252,7.899-11.694L454.786,607.013
				L454.786,607.013z"/>
			<path fill="#606268" d="M474.009,577.679h23.307v4.883h-17.75v14.006h16.741v4.878h-16.741v16.013h18.505v4.883h-24.062V577.679z
				"/>
			<path fill="#606268" d="M517.292,577.679h7.203l14.906,37.28h0.129v-37.28h5.552v44.664h-7.638l-14.464-36.159h-0.129v36.159
				h-5.557v-44.664L517.292,577.679L517.292,577.679z"/>
			<path fill="#606268" d="M580.164,622.342h-5.555v-39.78h-11.305v-4.883h28.226v4.883h-11.367L580.164,622.342L580.164,622.342z"
				/>
			<path fill="#606268" d="M609.737,577.679h14.588c7.135,0,11.561,4.132,11.561,11.199c0,4.753-1.707,10.068-6.942,11.255v0.13
				c3.973,0.434,6.122,3.621,6.372,7.44l0.382,7.637c0.188,4.939,1.07,6.185,2.398,7.002h-6.697
				c-1.008-1.006-1.326-4.255-1.514-6.449l-0.382-6.936c-0.5-6.137-3.853-6.507-6.694-6.507h-7.512v19.893h-5.56V577.679z
				 M615.297,597.947h5.496c3.288,0,9.281,0.064,9.281-8.635c0-4.436-2.906-7.128-8.146-7.128h-6.63L615.297,597.947
				L615.297,597.947z"/>
			<path fill="#606268" d="M684.984,600.01c0,11.255-2.083,23.203-14.529,23.203c-12.437,0-14.521-11.947-14.521-23.203
				c0-11.258,2.083-23.203,14.521-23.203C682.899,576.808,684.984,588.753,684.984,600.01z M661.739,600.01
				c0,10.318,1.016,18.697,8.716,18.697c7.708,0,8.719-8.379,8.719-18.697c0-10.323-1.011-18.705-8.719-18.705
				C662.755,581.305,661.739,589.688,661.739,600.01z"/>
			<path fill="#606268" d="M735.484,577.679h12.063c13.956,0,15.787,10.009,15.787,22.332c0,11.255-2.842,22.332-15.214,22.332
				h-12.636V577.679z M741.039,617.835h5.812c9.604,0,10.674-9.759,10.674-17.76c0-8.637-0.57-17.89-10.674-17.89h-5.812V617.835z"
				/>
			<path fill="#606268" d="M784.076,577.679h23.301v4.883H789.63v14.006h16.738v4.878H789.63v16.013h18.508v4.883h-24.062V577.679z"
				/>
			<path fill="#606268" d="M856.558,577.679h23.302v4.883h-17.747v14.006h16.733v4.878h-16.734v16.013h18.503v4.883h-24.057V577.679
				z"/>
			<path fill="#606268" d="M918.974,589.253c0-4.692-1.705-7.948-7.009-7.948c-4.742,0-7.447,2.503-7.447,7.259
				c0,12.573,21.282,5.067,21.282,21.392c0,10.323-7.646,13.257-14.026,13.257c-10.547,0-13.639-5.378-13.639-14.887h5.56
				c0,5.006,0.376,10.382,8.458,10.382c4.42,0,7.832-3.126,7.832-7.876c0-12.634-21.28-5.315-21.28-21.704
				c0-4.13,1.769-12.32,13.201-12.32c8.643,0,12.434,4.189,12.625,12.446h-5.557L918.974,589.253L918.974,589.253z"/>
			<path fill="#606268" d="M959.167,622.342h-5.56v-39.78h-11.302v-4.883h28.226v4.883h-11.364V622.342z"/>
			<path fill="#606268" d="M988.234,577.679h5.56v31.404c0,6.566,2.089,9.625,7.641,9.625c5.877,0,7.708-3.368,7.708-9.625v-31.404
				h5.56v31.404c0,8.568-4.425,14.131-13.268,14.131c-9.089,0-13.2-4.878-13.2-14.131L988.234,577.679L988.234,577.679z"/>
			<path fill="#606268" d="M1036.138,577.679h12.061c13.961,0,15.79,10.009,15.79,22.332c0,11.255-2.844,22.332-15.225,22.332
				h-12.625L1036.138,577.679L1036.138,577.679z M1041.698,617.835h5.807c9.593,0,10.671-9.759,10.671-17.76
				c0-8.637-0.564-17.89-10.671-17.89h-5.807L1041.698,617.835L1041.698,617.835z"/>
			<path fill="#606268" d="M1084.725,577.679h5.557v44.664h-5.557V577.679z"/>
			<path fill="#606268" d="M1140.066,600.01c0,11.255-2.081,23.203-14.526,23.203c-12.443,0-14.523-11.947-14.523-23.203
				c0-11.258,2.081-23.203,14.523-23.203C1137.984,576.808,1140.066,588.753,1140.066,600.01z M1116.826,600.01
				c0,10.318,1.011,18.697,8.713,18.697c7.711,0,8.719-8.379,8.719-18.697c0-10.323-1.008-18.705-8.719-18.705
				C1117.837,581.305,1116.826,589.688,1116.826,600.01z"/>
			<path fill="#606268" d="M1179.939,589.253c0-4.692-1.696-7.948-7.001-7.948c-4.737,0-7.453,2.503-7.453,7.259
				c0,12.573,21.279,5.067,21.279,21.392c0,10.323-7.644,13.257-14.018,13.257c-10.544,0-13.641-5.378-13.641-14.887h5.555
				c0,5.006,0.387,10.382,8.466,10.382c4.417,0,7.831-3.126,7.831-7.876c0-12.634-21.279-5.315-21.279-21.704
				c0-4.13,1.764-12.32,13.193-12.32c8.654,0,12.442,4.189,12.63,12.446h-5.562L1179.939,589.253L1179.939,589.253z"/>
			<path fill="#606268" d="M304.912,652.779h7.453l12.128,44.655h-5.81l-3.223-12.259h-14.397l-3.344,12.259h-5.815L304.912,652.779
				z M302.197,680.676h12.13l-5.748-21.581h-0.124L302.197,680.676z"/>
			<path fill="#606268" d="M329.442,652.779h5.805l8.848,38.345h0.123l8.846-38.345h5.809l-11.37,44.655h-7.074L329.442,652.779z"/>
			<path fill="#606268" d="M375.749,652.779h7.455l12.125,44.655h-5.807l-3.227-12.259h-14.394l-3.35,12.259h-5.813L375.749,652.779
				z M373.039,680.676h12.12l-5.746-21.581h-0.126L373.039,680.676z"/>
			<path fill="#606268" d="M405.331,652.779h7.2l14.902,37.28h0.127v-37.28h5.559v44.655h-7.641l-14.467-36.151h-0.121v36.151h-5.56
				L405.331,652.779L405.331,652.779z"/>
			<path fill="#606268" d="M445.075,692.81l20.269-35.155H446.21v-4.875h24.946v5.064l-20.271,34.713h20.524v4.878h-26.334V692.81z"
				/>
			<path fill="#606268" d="M492.211,652.779h7.453l12.125,44.655h-5.812l-3.224-12.259h-14.395l-3.355,12.259h-5.802
				L492.211,652.779z M489.495,680.676h12.125l-5.751-21.581h-0.123L489.495,680.676z"/>
			<path fill="#606268" d="M522.357,652.779h12.061c13.956,0,15.79,10.004,15.79,22.329c0,11.258-2.844,22.326-15.223,22.326
				h-12.628V652.779L522.357,652.779z M527.914,692.933h5.813c9.593,0,10.674-9.756,10.674-17.766
				c0-8.632-0.575-17.885-10.674-17.885h-5.813V692.933z"/>
			<path fill="#606268" d="M592.159,675.108c0,11.258-2.081,23.205-14.521,23.205c-12.443,0-14.526-11.947-14.526-23.205
				c0-11.263,2.083-23.205,14.526-23.205C590.078,651.903,592.159,663.846,592.159,675.108z M568.925,675.108
				c0,10.318,1.011,18.7,8.713,18.7s8.716-8.382,8.716-18.7c0-10.321-1.014-18.705-8.716-18.705S568.925,664.788,568.925,675.108z"
				/>
			<path fill="#606268" d="M624.841,664.351c0-4.691-1.707-7.948-7.014-7.948c-4.734,0-7.447,2.506-7.447,7.256
				c0,12.571,21.279,5.07,21.279,21.392c0,10.323-7.638,13.263-14.021,13.263c-10.541,0-13.636-5.381-13.636-14.887h5.555
				c0,5.001,0.379,10.382,8.466,10.382c4.411,0,7.824-3.128,7.824-7.876c0-12.64-21.283-5.317-21.283-21.712
				c0-4.127,1.772-12.318,13.206-12.318c8.649,0,12.437,4.186,12.628,12.448L624.841,664.351L624.841,664.351z"/>
			<path fill="#606268" d="M666.109,652.779h23.307v4.875h-17.752v14.014h16.739v4.876h-16.739v16.013h18.51v4.878h-24.065V652.779z
				"/>
			<path fill="#606268" d="M702.19,652.779h7.2l14.903,37.28h0.126v-37.28h5.56v44.655h-7.643l-14.467-36.151h-0.123v36.151h-5.555
				v-44.655H702.19z"/>
			<path fill="#606268" d="M766.136,652.779h23.307v4.875h-17.755v14.014h16.744v4.876h-16.744v20.891h-5.552V652.779z"/>
			<path fill="#606268" d="M801.016,652.779h14.588c7.135,0,11.563,4.122,11.563,11.194c0,4.756-1.704,10.073-6.953,11.261v0.128
				c3.977,0.434,6.13,3.624,6.383,7.434l0.377,7.639c0.193,4.939,1.073,6.19,2.398,7h-6.694c-1.005-1.001-1.323-4.252-1.516-6.438
				l-0.376-6.939c-0.505-6.138-3.853-6.518-6.695-6.518h-7.517v19.895h-5.557v-44.656L801.016,652.779L801.016,652.779z
				 M806.575,673.042h5.496c3.285,0,9.286,0.064,9.286-8.63c0-4.444-2.904-7.131-8.149-7.131h-6.633V673.042z"/>
			<path fill="#606268" d="M841.396,652.779h5.563v31.401c0,6.561,2.078,9.628,7.633,9.628c5.877,0,7.713-3.373,7.713-9.628v-31.401
				h5.555v31.401c0,8.569-4.42,14.133-13.268,14.133c-9.087,0-13.195-4.881-13.195-14.133L841.396,652.779L841.396,652.779z"/>
			<path fill="#606268" d="M895.219,697.435h-5.555v-39.78h-11.308v-4.875h28.23v4.875h-11.367V697.435z"/>
			<path fill="#606268" d="M917.599,652.779h5.555v44.655h-5.555V652.779z"/>
			<path fill="#606268" d="M964.911,682.111c-0.508,8.446-3.86,16.202-13.708,16.202c-12.816,0-14.518-11.947-14.518-23.205
				c0-11.263,2.078-23.205,14.518-23.205c9.157,0,13.077,5.126,13.327,13.883h-5.807c-0.188-5.067-1.769-9.383-7.52-9.383
				c-7.702,0-8.716,8.385-8.716,18.705c0,10.318,1.014,18.7,8.716,18.7c6.764,0,7.708-6.252,7.896-11.697H964.911z"/>
			<path fill="#606268" d="M976.43,652.779h5.56v31.401c0,6.561,2.081,9.628,7.638,9.628c5.872,0,7.711-3.373,7.711-9.628v-31.401
				h5.552v31.401c0,8.569-4.42,14.133-13.263,14.133c-9.09,0-13.198-4.881-13.198-14.133V652.779z"/>
			<path fill="#606268" d="M1016.552,652.779h5.555v39.778h18.317v4.878h-23.872V652.779z"/>
			<path fill="#606268" d="M1059.198,697.435h-5.555v-39.78h-11.308v-4.875h28.226v4.875h-11.364v39.78H1059.198z"/>
			<path fill="#606268" d="M1081.066,652.779h5.554v31.401c0,6.561,2.084,9.628,7.641,9.628c5.877,0,7.708-3.373,7.708-9.628
				v-31.401h5.557v31.401c0,8.569-4.42,14.133-13.265,14.133c-9.092,0-13.195-4.881-13.195-14.133V652.779z"/>
			<path fill="#606268" d="M1121.195,652.779h14.586c7.133,0,11.558,4.122,11.558,11.194c0,4.756-1.705,10.073-6.947,11.261v0.128
				c3.979,0.434,6.124,3.624,6.377,7.434l0.382,7.639c0.188,4.939,1.075,6.19,2.398,7h-6.694c-1.011-1.001-1.323-4.252-1.511-6.438
				l-0.384-6.939c-0.503-6.138-3.853-6.518-6.692-6.518h-7.523v19.895h-5.549L1121.195,652.779L1121.195,652.779z M1126.744,673.042
				h5.501c3.285,0,9.286,0.064,9.286-8.63c0-4.444-2.906-7.131-8.146-7.131h-6.641V673.042z"/>
			<path fill="#606268" d="M1169.658,652.779h7.444l12.125,44.655h-5.81l-3.221-12.259h-14.4l-3.35,12.259h-5.805L1169.658,652.779z
				 M1166.932,680.676h12.136l-5.754-21.581h-0.129L1166.932,680.676z"/>
		</g>
	</g>
	
		<linearGradient id="SVGID_2_" gradientUnits="userSpaceOnUse" x1="390.7405" y1="667.6942" x2="390.7405" y2="104.1203" gradientTransform="matrix(1 0 0 1 488 3640.9678)">
		<stop  offset="0" style="stop-color:#4AA146"/>
		<stop  offset="1" style="stop-color:#58B947"/>
	</linearGradient>
	<rect x="0" y="3745.088" fill="url(#SVGID_2_)" width="1757.48" height="563.574"/>
</g>
<g>
	<line fill="none" stroke="#231F20" stroke-width="0.9571" stroke-miterlimit="10" x1="28.346" y1="21.97" x2="28.346" y2="0.001"/>
	
		<line fill="none" stroke="#231F20" stroke-width="0.9571" stroke-miterlimit="10" x1="21.969" y1="28.347" x2="-0.001" y2="28.347"/>
</g>
<g>
	
		<line fill="none" stroke="#231F20" stroke-width="0.9571" stroke-miterlimit="10" x1="1735.51" y1="28.347" x2="1757.48" y2="28.347"/>
	<line fill="none" stroke="#231F20" stroke-width="0.9571" stroke-miterlimit="10" x1="1729.133" y1="21.97" x2="1729.133" y2="0"/>
</g>
<g>
	
		<line fill="none" stroke="#231F20" stroke-width="0.9571" stroke-miterlimit="10" x1="1729.133" y1="4286.692" x2="1729.133" y2="4308.662"/>
	
		<line fill="none" stroke="#231F20" stroke-width="0.9571" stroke-miterlimit="10" x1="1735.51" y1="4280.315" x2="1757.48" y2="4280.315"/>
</g>
<g>
	
		<line fill="none" stroke="#231F20" stroke-width="0.9571" stroke-miterlimit="10" x1="21.969" y1="4280.315" x2="0" y2="4280.315"/>
	
		<line fill="none" stroke="#231F20" stroke-width="0.9571" stroke-miterlimit="10" x1="28.346" y1="4286.692" x2="28.346" y2="4308.662"/>
</g>
</svg>
