<?xml version="1.0" encoding="utf-8"?>
<!-- Generator: Adobe Illustrator 17.0.0, SVG Export Plug-In . SVG Version: 6.00 Build 0)  -->
<!DOCTYPE svg PUBLIC "-//W3C//DTD SVG 1.1//EN" "http://www.w3.org/Graphics/SVG/1.1/DTD/svg11.dtd" [
	<!ENTITY ns_extend "http://ns.adobe.com/Extensibility/1.0/">
	<!ENTITY ns_ai "http://ns.adobe.com/AdobeIllustrator/10.0/">
	<!ENTITY ns_graphs "http://ns.adobe.com/Graphs/1.0/">
	<!ENTITY ns_vars "http://ns.adobe.com/Variables/1.0/">
	<!ENTITY ns_imrep "http://ns.adobe.com/ImageReplacement/1.0/">
	<!ENTITY ns_sfw "http://ns.adobe.com/SaveForWeb/1.0/">
	<!ENTITY ns_custom "http://ns.adobe.com/GenericCustomNamespace/1.0/">
	<!ENTITY ns_adobe_xpath "http://ns.adobe.com/XPath/1.0/">
]>
<svg version="1.1" id="Layer_1" xmlns:x="&ns_extend;" xmlns:i="&ns_ai;" xmlns:graph="&ns_graphs;"
	 xmlns="http://www.w3.org/2000/svg" xmlns:xlink="http://www.w3.org/1999/xlink" x="0px" y="0px" width="2324.409px"
	 height="5725.984px" viewBox="0 0 2324.409 5725.984" enable-background="new 0 0 2324.409 5725.984" xml:space="preserve">
<metadata>
	<sfw  xmlns="&ns_sfw;">
		<slices></slices>
		<sliceSourceBounds  width="2379.08" height="5762.334" x="-549.731" y="-2498.843" bottomLeftOrigin="true"></sliceSourceBounds>
	</sfw>
</metadata>
<g>
	<g>
		<g>
			
				<linearGradient id="XMLID_3_" gradientUnits="userSpaceOnUse" x1="674.2045" y1="667.6932" x2="674.2045" y2="-5058.2896" gradientTransform="matrix(1 0 0 1 488 5058.29)">
				<stop  offset="0" style="stop-color:#E6E7E8"/>
				<stop  offset="1" style="stop-color:#FFFFFF"/>
			</linearGradient>
			<rect id="XMLID_1_" x="-0.002" y="0" fill="url(#XMLID_3_)" width="2324.413" height="5725.983"/>
		</g>
		<g>
			<g>
				<defs>
					<rect id="SVGID_1_" x="-0.002" y="0" width="2324.413" height="5725.983"/>
				</defs>
				<clipPath id="SVGID_2_">
					<use xlink:href="#SVGID_1_"  overflow="visible"/>
				</clipPath>
				
					<linearGradient id="SVGID_3_" gradientUnits="userSpaceOnUse" x1="674.5139" y1="704.0443" x2="674.5139" y2="-153.3736" gradientTransform="matrix(1 0 0 1 488 5058.29)">
					<stop  offset="0" style="stop-color:#4AA146"/>
					<stop  offset="1" style="stop-color:#58B947"/>
				</linearGradient>
				<rect x="-27.026" y="4904.917" clip-path="url(#SVGID_2_)" fill="url(#SVGID_3_)" width="2379.08" height="857.418"/>
			</g>
		</g>
	</g>
	<g>
		<g>
			<path fill="#3C9043" d="M1733.614,386.64v-24.938c0.509-20.639,4.888-39.877,13.19-57.774
				c8.281-17.913,19.075-33.514,32.382-46.854c13.321-13.366,28.771-23.93,46.334-31.752c17.614-7.804,36.187-11.717,55.806-11.717
				v-37.75c-25.139,0.509-49.523,5.555-73.115,15.105c-23.621,9.544-43.974,23.166-61.035,40.779
				c-8.528,8.55-16.206,18.094-22.982,28.679c-6.777,10.611-12.566,21.804-17.331,33.637c-4.765,11.827-8.411,23.901-10.924,36.254
				c-2.506,12.318-3.77,24.024-3.77,35.104v80.026v61.938v78.529v41.551v69.469h0.022v238.296h41.424V689.09v-61.625V503.636
				c0.509-20.595,4.888-39.847,13.19-57.712c8.281-17.908,19.075-33.488,32.382-46.825c13.321-13.345,28.771-23.912,46.334-31.709
				c17.614-7.815,36.187-11.724,55.806-11.724v-37.754c-12.573,0-24.631,0.881-36.18,2.635c-11.578,1.773-23.65,5.165-36.194,10.192
				c-23.076,10.586-43.683,24.454-61.776,41.573c-0.995,1.019-1.635,1.747-1.882,2.25c-0.225,0.513-0.639,1.12-1.154,1.907
				c-0.48,0.742-1.489,1.871-3.015,3.381C1739.643,381.351,1737.13,383.615,1733.614,386.64"/>
			<path fill="#3C9043" d="M1650.315,320.526c19.409-19.455,2.411-68.075-37.988-108.541
				c-40.386-40.452-108.366-37.958-108.271-38.042c0.007-0.011-2.44,68.039,37.953,108.526
				C1582.401,322.943,1630.878,339.996,1650.315,320.526"/>
			<path fill="#D95131" d="M1953.584,506.381c0,38.842-31.43,70.321-70.159,70.321c-38.758,0-70.166-31.479-70.166-70.321
				c0-38.832,31.408-70.307,70.166-70.307C1922.155,436.074,1953.584,467.549,1953.584,506.381z"/>
			<path fill="#606268" d="M498.609,655.035c-17.592-8.044-33.02-18.746-46.371-32.087c-13.292-13.355-23.693-28.96-31.241-46.851
				c-7.532-17.872-11.309-36.632-11.309-56.26c0-20.165,3.778-39.17,11.309-57.038c7.547-17.876,17.948-33.343,31.241-46.45
				c13.351-13.108,28.779-23.427,46.371-30.987c17.578-7.549,36.667-11.339,57.252-11.339c37.19,0,70.064,12.343,98.69,36.986
				l30.907-27.158l-3.762-3.789c-7.032-6.523-15.45-12.922-25.249-19.186c-9.791-6.272-20.709-12.154-32.773-17.657
				c-10.053-3.509-20.97-6.662-32.788-9.432c-11.803-2.734-24.478-4.142-38.032-4.142c-26.135,0-50.598,5.427-73.478,16.252
				c-22.851,10.807-42.681,25.029-59.489,42.643c-16.793,17.599-30.078,37.845-39.848,60.715
				c-9.733,22.914-14.614,46.424-14.614,70.583c0,25.157,5.128,49.042,15.37,71.69c10.264,22.63,24.042,42.49,41.358,59.594
				c17.316,17.119,37.262,30.823,59.881,41.143c22.59,10.316,46.196,15.47,70.82,15.47c11.055,0,22.59-1.361,34.655-4.142
				c12.064-2.752,23.977-6.52,35.795-11.259c11.774-4.779,22.713-10.41,32.765-16.933c10.024-6.497,18.595-13.821,25.627-21.862
				l-27.145-27.18c-12.035,12.077-26.715,21.891-44.068,29.448c-17.33,7.538-35.533,11.331-54.622,11.331
				C535.276,667.137,516.187,663.104,498.609,655.035"/>
			<path fill="#606268" d="M1084.969,518.462h-1.526c0,20.609-3.879,39.839-11.68,57.708c-7.779,17.847-18.319,33.295-31.64,46.374
				c-13.321,13.067-28.909,23.394-46.719,30.918c-17.825,7.539-36.536,11.31-56.148,11.31c-20.57,0-39.666-3.771-57.251-11.31
				c-17.564-7.534-32.774-17.876-45.565-30.939c-12.806-13.086-22.873-28.571-30.151-46.425
				c-7.293-17.861-10.932-37.102-10.932-57.741c0-19.619,3.639-38.333,10.932-56.234c7.278-17.84,17.345-33.554,30.173-47.164
				c12.784-13.57,28.002-24.275,45.572-32.09c17.571-7.778,36.696-11.662,57.295-11.662c24.115,0,47.083,5.929,68.961,17.748
				c21.849,11.819,39.804,27.286,53.896,46.421l-82.151,83.086h58.094l44.489-45.307l34.647-34.016l3.015-3.763l-51.223-54.367
				c-17.578-16.587-37.669-29.324-60.273-38.103c-22.612-8.835-45.964-13.26-70.072-13.26c-39.187,0-73.588,10.337-103.237,30.972
				c-29.636,20.65-53.242,48.049-70.82,82.246c-5.535,12.088-9.167,24.18-10.939,36.243c-1.758,12.085-2.629,25.181-2.629,39.25
				c0,25.676,4.896,49.963,14.694,72.859c9.799,22.899,23.222,42.886,40.276,60.005c17.099,17.1,37.044,30.583,59.874,40.367
				c22.852,9.806,47.061,14.739,72.687,14.739c26.106,0,50.555-4.933,73.42-14.739c22.851-9.784,42.674-23.118,59.517-39.986
				c16.794-16.835,30.231-36.68,40.284-59.583c10.031-22.874,15.042-47.393,15.042-73.557L1084.969,518.462L1084.969,518.462z"/>
			<path fill="#606268" d="M1491.396,360.875c-31.103-20.664-65.474-30.98-103.099-30.98c-27.587,0-52.923,5.161-75.992,15.469
				c-23.077,10.327-42.891,24.177-59.474,41.536c-16.546,17.392-29.331,37.507-38.352,60.432
				c-9.05,22.899-13.554,46.93-13.554,72.112c0,26.19,4.867,50.731,14.644,73.644c9.718,22.896,23.12,42.785,40.197,59.653
				c17.069,16.86,37.016,30.197,59.866,40.029c22.851,9.81,47.083,14.724,72.708,14.724c15.58,0,26.12-0.615,31.662-1.893
				c5.52-1.245,10.039-1.885,13.547-1.885l-6.777-40.586c-7.038,2.028-13.445,3.127-19.219,3.381
				c-5.76,0.262-12.166,0.382-19.212,0.382c-20.585,0-39.811-3.909-57.629-11.735c-17.854-7.783-33.275-18.219-46.342-31.377
				c-13.082-13.082-23.476-28.574-31.262-46.494c-7.772-17.869-11.68-37.15-11.68-57.843c0-20.166,3.893-39.177,11.68-57.086
				c7.757-17.883,18.181-33.63,31.233-47.251c13.053-13.603,28.502-24.424,46.356-32.534c17.796-8.026,37.023-12.085,57.601-12.085
				c20.592,0,39.92,4.058,58.014,12.085c18.05,8.077,33.761,18.895,47.089,32.491c13.271,13.599,23.824,29.349,31.604,47.229
				c7.779,17.894,11.709,36.895,11.709,57.049v188.152h40.479V601.006v-81.561c0-12.594-0.893-24.788-2.622-36.644
				c-1.787-11.805-5.397-24.024-10.932-36.622C1546.592,409.965,1522.498,381.5,1491.396,360.875"/>
		</g>
		<g>
			<path fill="#606268" d="M585.645,809.964c-0.683,11.542-5.208,22.146-18.515,22.146c-17.316,0-19.619-16.332-19.619-31.719
				c0-15.39,2.812-31.719,19.619-31.719c12.366,0,17.669,7,17.999,18.972h-7.844c-0.251-6.917-2.397-12.824-10.155-12.824
				c-10.401,0-11.767,11.459-11.767,25.571c0,14.105,1.366,25.56,11.767,25.56c9.127,0,10.416-8.547,10.67-15.987H585.645z"/>
			<path fill="#606268" d="M611.612,769.862h31.484v6.676h-23.977v19.147h22.615v6.668h-22.615v21.891h24.997v6.676h-32.504V769.862
				z"/>
			<path fill="#606268" d="M670.08,769.862h9.73l20.135,50.963h0.174v-50.963h7.5v61.057h-10.318l-19.539-49.431h-0.174v49.431
				h-7.507L670.08,769.862L670.08,769.862z"/>
			<path fill="#606268" d="M755.01,830.919h-7.503v-54.382h-15.272v-6.676h38.13v6.676H755.01L755.01,830.919L755.01,830.919z"/>
			<path fill="#606268" d="M794.96,769.862h19.706c9.639,0,15.617,5.649,15.617,15.31c0,6.497-2.307,13.763-9.377,15.387v0.178
				c5.367,0.593,8.269,4.951,8.607,10.17l0.515,10.44c0.254,6.752,1.446,8.455,3.24,9.573h-9.047
				c-1.362-1.375-1.791-5.816-2.045-8.816l-0.516-9.482c-0.675-8.39-5.204-8.896-9.043-8.896h-10.148v27.194h-7.51v-61.058H794.96z
				 M802.47,797.569h7.424c4.442,0,12.537,0.087,12.537-11.805c0-6.064-3.926-9.744-11.004-9.744h-8.956L802.47,797.569
				L802.47,797.569z"/>
			<path fill="#606268" d="M896.606,800.39c0,15.386-2.815,31.719-19.626,31.719c-16.801,0-19.615-16.332-19.615-31.719
				c0-15.39,2.815-31.719,19.615-31.719C893.792,768.671,896.606,785.001,896.606,800.39z M865.206,800.39
				c0,14.105,1.373,25.56,11.774,25.56c10.412,0,11.778-11.455,11.778-25.56c0-14.112-1.366-25.571-11.778-25.571
				C866.579,774.819,865.206,786.279,865.206,800.39z"/>
			<path fill="#606268" d="M964.826,769.862h16.296c18.853,0,21.326,13.683,21.326,30.529c0,15.386-3.839,30.529-20.552,30.529
				h-17.069v-61.058H964.826z M972.329,824.757h7.852c12.973,0,14.418-13.341,14.418-24.279c0-11.808-0.77-24.457-14.418-24.457
				h-7.852V824.757z"/>
			<path fill="#606268" d="M1030.467,769.862h31.477v6.676h-23.973v19.147h22.611v6.668h-22.611v21.891h25.001v6.676h-32.504
				L1030.467,769.862L1030.467,769.862z"/>
			<path fill="#606268" d="M1128.38,769.862h31.477v6.676h-23.974v19.147h22.604v6.668h-22.604v21.891h24.994v6.676h-32.498
				L1128.38,769.862L1128.38,769.862z"/>
			<path fill="#606268" d="M1212.692,785.685c0-6.414-2.303-10.866-9.469-10.866c-6.406,0-10.06,3.422-10.06,9.923
				c0,17.188,28.749,6.927,28.749,29.244c0,14.112-10.328,18.123-18.947,18.123c-14.248,0-18.424-7.352-18.424-20.351h7.511
				c0,6.843,0.508,14.192,11.425,14.192c5.97,0,10.58-4.273,10.58-10.767c0-17.272-28.746-7.265-28.746-29.67
				c0-5.645,2.39-16.842,17.832-16.842c11.676,0,16.797,5.726,17.055,17.014L1212.692,785.685L1212.692,785.685z"/>
			<path fill="#606268" d="M1266.987,830.919h-7.511v-54.382h-15.268v-6.676h38.13v6.676h-15.351L1266.987,830.919L1266.987,830.919
				z"/>
			<path fill="#606268" d="M1306.254,769.862h7.51v42.93c0,8.976,2.822,13.158,10.322,13.158c7.939,0,10.412-4.604,10.412-13.158
				v-42.93h7.511v42.93c0,11.714-5.978,19.317-17.923,19.317c-12.279,0-17.832-6.668-17.832-19.317V769.862z"/>
			<path fill="#606268" d="M1370.965,769.862h16.292c18.859,0,21.33,13.683,21.33,30.529c0,15.386-3.843,30.529-20.567,30.529
				h-17.054L1370.965,769.862L1370.965,769.862z M1378.475,824.757h7.845c12.958,0,14.415-13.341,14.415-24.279
				c0-11.808-0.762-24.457-14.415-24.457h-7.845V824.757z"/>
			<path fill="#606268" d="M1436.599,769.862h7.507v61.057h-7.507V769.862z"/>
			<path fill="#606268" d="M1511.356,800.39c0,15.386-2.812,31.719-19.623,31.719c-16.808,0-19.619-16.332-19.619-31.719
				c0-15.39,2.811-31.719,19.619-31.719C1508.544,768.671,1511.356,785.001,1511.356,800.39z M1479.963,800.39
				c0,14.105,1.366,25.56,11.771,25.56c10.416,0,11.778-11.455,11.778-25.56c0-14.112-1.362-25.571-11.778-25.571
				C1481.328,774.819,1479.963,786.279,1479.963,800.39z"/>
			<path fill="#606268" d="M1565.219,785.685c0-6.414-2.292-10.866-9.457-10.866c-6.4,0-10.067,3.422-10.067,9.923
				c0,17.188,28.745,6.927,28.745,29.244c0,14.112-10.325,18.123-18.936,18.123c-14.244,0-18.427-7.352-18.427-20.351h7.503
				c0,6.843,0.523,14.192,11.437,14.192c5.967,0,10.579-4.273,10.579-10.767c0-17.272-28.745-7.265-28.745-29.67
				c0-5.645,2.382-16.842,17.821-16.842c11.691,0,16.807,5.726,17.062,17.014L1565.219,785.685L1565.219,785.685z"/>
			<path fill="#606268" d="M383.188,872.528h10.067l16.383,61.046h-7.848l-4.354-16.758h-19.449l-4.518,16.758h-7.855
				L383.188,872.528z M379.519,910.664h16.386l-7.764-29.502h-0.167L379.519,910.664z"/>
			<path fill="#606268" d="M416.323,872.528h7.841l11.953,52.419h0.167l11.949-52.419h7.848l-15.359,61.046h-9.555L416.323,872.528z
				"/>
			<path fill="#606268" d="M478.878,872.528h10.071l16.379,61.046h-7.844l-4.359-16.758h-19.444l-4.525,16.758h-7.852
				L478.878,872.528z M475.217,910.664h16.372l-7.761-29.502h-0.17L475.217,910.664z"/>
			<path fill="#606268" d="M518.838,872.528h9.727l20.131,50.963h0.171v-50.963h7.51v61.046h-10.322l-19.542-49.42h-0.164v49.42
				h-7.511L518.838,872.528L518.838,872.528z"/>
			<path fill="#606268" d="M572.527,927.252l27.38-48.059H574.06v-6.665h33.699v6.923l-27.383,47.454h27.725v6.668h-35.573
				L572.527,927.252L572.527,927.252z"/>
			<path fill="#606268" d="M636.2,872.528h10.067l16.379,61.046h-7.852l-4.355-16.758h-19.444l-4.532,16.758h-7.837L636.2,872.528z
				 M632.532,910.664h16.379l-7.768-29.502h-0.167L632.532,910.664z"/>
			<path fill="#606268" d="M676.923,872.528h16.292c18.852,0,21.33,13.676,21.33,30.525c0,15.39-3.842,30.521-20.564,30.521h-17.058
				V872.528z M684.43,927.419h7.852c12.958,0,14.418-13.337,14.418-24.287c0-11.801-0.777-24.449-14.418-24.449h-7.852V927.419z"/>
			<path fill="#606268" d="M771.215,903.053c0,15.39-2.811,31.723-19.615,31.723c-16.808,0-19.623-16.332-19.623-31.723
				c0-15.397,2.815-31.723,19.623-31.723C768.404,871.33,771.215,887.656,771.215,903.053z M739.829,903.053
				c0,14.105,1.366,25.564,11.77,25.564c10.405,0,11.774-11.459,11.774-25.564c0-14.109-1.369-25.571-11.774-25.571
				C741.195,877.482,739.829,888.944,739.829,903.053z"/>
			<path fill="#606268" d="M815.363,888.347c0-6.413-2.306-10.865-9.475-10.865c-6.395,0-10.06,3.425-10.06,9.919
				c0,17.185,28.745,6.931,28.745,29.243c0,14.112-10.318,18.131-18.94,18.131c-14.24,0-18.42-7.356-18.42-20.351h7.503
				c0,6.836,0.512,14.192,11.437,14.192c5.959,0,10.569-4.277,10.569-10.767c0-17.279-28.75-7.269-28.75-29.681
				c0-5.642,2.393-16.839,17.84-16.839c11.683,0,16.801,5.722,17.058,17.017h-7.507L815.363,888.347L815.363,888.347z"/>
			<path fill="#606268" d="M871.111,872.528h31.484v6.665h-23.98v19.157h22.611v6.665h-22.611v21.891h25.005v6.668h-32.508v-61.046
				L871.111,872.528L871.111,872.528z"/>
			<path fill="#606268" d="M919.85,872.528h9.726l20.131,50.963h0.17v-50.963h7.511v61.046h-10.325l-19.543-49.42h-0.167v49.42
				h-7.503L919.85,872.528L919.85,872.528z"/>
			<path fill="#606268" d="M1006.232,872.528h31.484v6.665h-23.984v19.157h22.619v6.665h-22.619v28.559h-7.5V872.528z"/>
			<path fill="#606268" d="M1053.35,872.528h19.706c9.639,0,15.62,5.634,15.62,15.302c0,6.501-2.302,13.77-9.392,15.394v0.174
				c5.372,0.594,8.281,4.954,8.622,10.163l0.509,10.443c0.261,6.752,1.449,8.463,3.239,9.569h-9.043
				c-1.358-1.369-1.787-5.812-2.048-8.801l-0.508-9.486c-0.683-8.39-5.204-8.911-9.044-8.911h-10.154v27.198h-7.507L1053.35,872.528
				L1053.35,872.528z M1060.858,900.228h7.424c4.438,0,12.544,0.087,12.544-11.797c0-6.076-3.923-9.748-11.008-9.748h-8.96
				L1060.858,900.228L1060.858,900.228z"/>
			<path fill="#606268" d="M1107.896,872.528h7.515v42.927c0,8.969,2.807,13.162,10.31,13.162c7.939,0,10.42-4.611,10.42-13.162
				v-42.927h7.503v42.927c0,11.714-5.971,19.321-17.923,19.321c-12.276,0-17.825-6.672-17.825-19.321L1107.896,872.528
				L1107.896,872.528z"/>
			<path fill="#606268" d="M1180.605,933.574h-7.503v-54.381h-15.275v-6.665h38.134v6.665h-15.356V933.574z"/>
			<path fill="#606268" d="M1210.836,872.528h7.503v61.046h-7.503V872.528z"/>
			<path fill="#606268" d="M1274.748,912.626c-0.686,11.546-5.215,22.149-18.518,22.149c-17.313,0-19.611-16.332-19.611-31.723
				c0-15.397,2.807-31.723,19.611-31.723c12.37,0,17.665,7.007,18.003,18.979h-7.845c-0.254-6.927-2.39-12.827-10.158-12.827
				c-10.405,0-11.774,11.462-11.774,25.571c0,14.105,1.369,25.564,11.774,25.564c9.137,0,10.412-8.547,10.667-15.99
				L1274.748,912.626L1274.748,912.626z"/>
			<path fill="#606268" d="M1290.307,872.528h7.511v42.927c0,8.969,2.811,13.162,10.318,13.162c7.932,0,10.416-4.611,10.416-13.162
				v-42.927h7.5v42.927c0,11.714-5.97,19.321-17.916,19.321c-12.279,0-17.829-6.672-17.829-19.321V872.528z"/>
			<path fill="#606268" d="M1344.507,872.528h7.503v54.378h24.744v6.668h-32.247L1344.507,872.528L1344.507,872.528z"/>
			<path fill="#606268" d="M1402.115,933.574h-7.503v-54.381h-15.275v-6.665h38.13v6.665h-15.351L1402.115,933.574L1402.115,933.574
				z"/>
			<path fill="#606268" d="M1431.656,872.528h7.503v42.927c0,8.969,2.815,13.162,10.322,13.162c7.939,0,10.412-4.611,10.412-13.162
				v-42.927h7.507v42.927c0,11.714-5.97,19.321-17.919,19.321c-12.282,0-17.825-6.672-17.825-19.321L1431.656,872.528
				L1431.656,872.528z"/>
			<path fill="#606268" d="M1485.864,872.528h19.703c9.635,0,15.613,5.634,15.613,15.302c0,6.501-2.303,13.77-9.384,15.394v0.174
				c5.375,0.594,8.273,4.954,8.615,10.163l0.516,10.443c0.254,6.752,1.453,8.463,3.239,9.569h-9.043
				c-1.366-1.369-1.786-5.812-2.041-8.801l-0.519-9.486c-0.679-8.39-5.204-8.911-9.039-8.911h-10.162v27.198h-7.496v-61.045
				H1485.864z M1493.36,900.228h7.431c4.437,0,12.544,0.087,12.544-11.797c0-6.076-3.926-9.748-11.004-9.748h-8.971V900.228z"/>
			<path fill="#606268" d="M1551.331,872.528h10.056l16.38,61.046h-7.848l-4.351-16.758h-19.452l-4.525,16.758h-7.841
				L1551.331,872.528z M1547.648,910.664h16.394l-7.773-29.502h-0.174L1547.648,910.664z"/>
		</g>
	</g>
</g>
<g>
	<g>
		
			<line fill="none" stroke="#231F20" stroke-width="0.9571" stroke-miterlimit="10" x1="28.345" y1="5704.014" x2="28.345" y2="5725.983"/>
		
			<line fill="none" stroke="#231F20" stroke-width="0.9571" stroke-miterlimit="10" x1="21.968" y1="5697.637" x2="-0.001" y2="5697.637"/>
	</g>
	<g>
		
			<line fill="none" stroke="#231F20" stroke-width="0.9571" stroke-miterlimit="10" x1="2302.441" y1="5697.637" x2="2324.41" y2="5697.637"/>
		
			<line fill="none" stroke="#231F20" stroke-width="0.9571" stroke-miterlimit="10" x1="2296.064" y1="5704.014" x2="2296.064" y2="5725.983"/>
	</g>
	<g>
		
			<line fill="none" stroke="#231F20" stroke-width="0.9571" stroke-miterlimit="10" x1="28.345" y1="21.97" x2="28.345" y2="0.001"/>
		
			<line fill="none" stroke="#231F20" stroke-width="0.9571" stroke-miterlimit="10" x1="21.968" y1="28.347" x2="-0.001" y2="28.347"/>
	</g>
	<g>
		
			<line fill="none" stroke="#231F20" stroke-width="0.9571" stroke-miterlimit="10" x1="2302.441" y1="28.347" x2="2324.41" y2="28.347"/>
		
			<line fill="none" stroke="#231F20" stroke-width="0.9571" stroke-miterlimit="10" x1="2296.064" y1="21.97" x2="2296.064" y2="0.001"/>
	</g>
</g>
</svg>
